----------------------------------------------------------------
Wed Aug 15 21:16:28 AEST 2018:
Booting Derby version The Apache Software Foundation - Apache Derby - 10.14.1.0 - (1808820): instance a816c00e-0165-3d4d-152b-00000632f2a0 
on database directory memory:/home/aham/workspace/articleapi/testdb with class loader sun.misc.Launcher$AppClassLoader@6bc7c054 
Loaded from file:/home/aham/.m2/repository/org/apache/derby/derby/10.14.1.0/derby-10.14.1.0.jar
java.vendor=Oracle Corporation
java.runtime.version=1.8.0_181-b13
user.dir=/home/aham/workspace/articleapi
os.name=Linux
os.arch=amd64
os.version=4.4.0-131-generic
derby.system.home=null
Database Class Loader started - derby.database.classpath=''
